# MTL Exporter v1.0 by Seungwoo Oh at CLO - Virtual Fashion Inc.
newmtl Material11450
Ka 0.102853 0.102853 0.102853
Kd 0.400000 0.400000 0.400000
Ks 0.075000 0.075000 0.075000
Ns 28.763239
illum 2
d 1.000000
map_Ka 33/Overlock_thin.png
map_Kd 33/Overlock_thin.png
newmtl Material11352
Ka 0.102853 0.102853 0.102853
Kd 0.400000 0.400000 0.400000
Ks 0.075000 0.075000 0.075000
Ns 28.763239
illum 2
d 1.000000
map_Ka 33/RPED-Wider-Basic_Offset.png
map_Kd 33/RPED-Wider-Basic_Offset.png
newmtl Material11651
Ka 0.210747 0.210747 0.210747
Kd 0.819608 0.819608 0.819608
Ks 0.075000 0.075000 0.075000
Ns 28.763239
illum 2
d 1.000000
map_Ka 33/Overlock_thin.png
map_Kd 33/Overlock_thin.png
newmtl FABRIC 4_FRONT_11230
Ka 0.257132 0.257132 0.257132
Kd 1.000000 1.000000 1.000000
Ks 0.075000 0.075000 0.075000
Ns 28.763239
illum 2
d 1.000000
map_Ka 33/zip_tasca_dietro.png
map_Kd 33/zip_tasca_dietro.png
newmtl Waist Band_FRONT_11186
Ka 0.257132 0.257132 0.257132
Kd 1.000000 1.000000 1.000000
Ks 0.075000 0.075000 0.075000
Ns 28.763239
illum 2
d 1.000000
map_Bump 33/TAMETISTNR_NM.png
map_Ka 33/PrintPatternM11-01-01-01.jpg
map_Kd 33/PrintPatternM11-01-01-01.jpg
newmtl Front_FRONT_11156
Ka 0.257132 0.257132 0.257132
Kd 1.000000 1.000000 1.000000
Ks 0.075000 0.075000 0.075000
Ns 28.763239
illum 2
d 1.000000
map_Ka 33/PrintPatternM11-01-01-01.jpg
map_Kd 33/PrintPatternM11-01-01-01.jpg
map_Bump 33/Brikl-MeshNM02.png
newmtl Sleeve Band_BACK_11176
Ka 0.257132 0.257132 0.257132
Kd 1.000000 1.000000 1.000000
Ks 0.075000 0.075000 0.075000
Ns 28.763239
illum 2
d 1.000000
map_Ka 33/Brikl-UnderBand01.png
map_Kd 33/Brikl-UnderBand01.png
newmtl Side Panel_FRONT_11200
Ka 0.257132 0.257132 0.257132
Kd 1.000000 1.000000 1.000000
Ks 0.075000 0.075000 0.075000
Ns 28.763239
illum 2
d 1.000000
map_Ka 33/PrintPatternM11-01-01-01.jpg
map_Kd 33/PrintPatternM11-01-01-01.jpg
map_Bump 33/Brikl-MeshNM02.png
newmtl Pocket_FRONT_11206
Ka 0.257132 0.257132 0.257132
Kd 1.000000 1.000000 1.000000
Ks 0.075000 0.075000 0.075000
Ns 28.763239
illum 2
d 1.000000
map_Ka 33/PrintPatternM11-01-01-01.jpg
map_Kd 33/PrintPatternM11-01-01-01.jpg
map_Bump 33/Brikl-MeshNM02.png
newmtl FABRIC 3_FRONT_11224
Ka 0.257132 0.257132 0.257132
Kd 1.000000 1.000000 1.000000
Ks 0.075000 0.075000 0.075000
Ns 28.763239
illum 2
d 1.000000
map_Ka 33/EL2090NR.png
map_Kd 33/EL2090NR.png
newmtl Sleeve Panel_FRONT_11194
Ka 0.257132 0.257132 0.257132
Kd 1.000000 1.000000 1.000000
Ks 0.075000 0.075000 0.075000
Ns 28.763239
illum 2
d 1.000000
map_Ka 33/PrintPatternM11-01-01-01.jpg
map_Kd 33/PrintPatternM11-01-01-01.jpg
map_Bump 33/Brikl-MeshNM02.png
newmtl FABRIC 5_FRONT_11236
Ka 0.157304 0.157304 0.157304
Kd 0.611765 0.611765 0.611765
Ks 0.075000 0.075000 0.075000
Ns 28.763239
illum 2
d 1.000000
newmtl Sleeve_FRONT_11170
Ka 0.257132 0.257132 0.257132
Kd 1.000000 1.000000 1.000000
Ks 0.075000 0.075000 0.075000
Ns 28.763239
illum 2
d 1.000000
map_Ka 33/PrintPatternM11-01-01-01.jpg
map_Kd 33/PrintPatternM11-01-01-01.jpg
map_Bump 33/Brikl-MeshNM02.png
newmtl Collar_FRONT_11212
Ka 0.257132 0.257132 0.257132
Kd 1.000000 1.000000 1.000000
Ks 0.075000 0.075000 0.075000
Ns 28.763239
illum 2
d 1.000000
map_Ka 33/PrintPatternM11-01-01-01.jpg
map_Kd 33/PrintPatternM11-01-01-01.jpg
map_Bump 33/Brikl-MeshNM02.png
newmtl Sleeve Band_FRONT_11176
Ka 0.257132 0.257132 0.257132
Kd 1.000000 1.000000 1.000000
Ks 0.075000 0.075000 0.075000
Ns 28.763239
illum 2
d 1.000000
map_Ka 33/PrintPatternM11-01-01-01.jpg
map_Kd 33/PrintPatternM11-01-01-01.jpg
map_Bump 33/TAMETISTNR_NM.png
newmtl Waist Band_BACK_11186
Ka 0.257132 0.257132 0.257132
Kd 1.000000 1.000000 1.000000
Ks 0.075000 0.075000 0.075000
Ns 28.763239
illum 2
d 1.000000
map_Ka 33/Brikl-UnderBand01.png
map_Kd 33/Brikl-UnderBand01.png
newmtl Back_FRONT_11164
Ka 0.257132 0.257132 0.257132
Kd 1.000000 1.000000 1.000000
Ks 0.075000 0.075000 0.075000
Ns 28.763239
illum 2
d 1.000000
map_Ka 44/PrintPatternM11-01-01-01.jpg
map_Kd 44/PrintPatternM11-01-01-01.jpg
map_Bump 33/Brikl-MeshNM02.png
newmtl FABRIC 2_FRONT_11218
Ka 0.257132 0.257132 0.257132
Kd 1.000000 1.000000 1.000000
Ks 0.075000 0.075000 0.075000
Ns 28.763239
illum 2
d 1.000000
map_Ka 33/LCFOR39BC.jpg
map_Kd 33/LCFOR39BC.jpg
newmtl Material11554
Ka 0.102853 0.102853 0.102853
Kd 0.400000 0.400000 0.400000
Ks 0.075000 0.075000 0.075000
Ns 28.763239
illum 2
d 1.000000
map_Ka 33/RPED-Wider-Basic_Offset.png
map_Kd 33/RPED-Wider-Basic_Offset.png
